{
  "name": "ReadImage-pil",
  "type": "Digitalize",
  "authors": [
"QmWvTKPJupSDRdR1HZZFw4ankb1io8BpgBq5eh3CyWg1Nd"
],
  "architecture": "x86-64",
  "environment": "linux",
  "inputs": [
    {
      "name": "images",
      "type": "images",
      "file": "/images"
    }
  ],
  "outputs": [
    {
      "name": "DigitalizedData",
      "type": "data",
      "file_type": "data"
    }
  ],
  "run": {
    "command": [
      "/usr/bin/python3",
      "{{ paths.mount }}/main.py"
    ],
    "dependencies": [
      {
        "type": "language",
        "name": "python",
        "id": "QmRt6cEP2MsyxaAvyzHCH9FFwCn3NAtLRzbJdW4tVPBkSV",
        "version": ">=3.6"
      },
      {
        "name": "bash",
        "type": "language",
        "id": "QmUpBXwVhGpWzaKToh6jxQJQxGbJvZQxFWJ16nHK5WXsWd",
        "version": "4.4"
      }
    ],
    "install": []
  },
  "dependencies": [
    {
      "version": "~1.18.1",
      "summary": "NumPy is the fundamental package for array computing with Python.",
      "type": "python-library",
      "name": "numpy",
      "id": "QmX8fe1jBgfp6m4WrLFxM2ppKbVG8zNJTVfxS4maUQq4DB",
      "uid": "QmQA4zbhj2ztTwr3AWfF7ZHh3VNfppqxUWwb2v282m5UJF"
    },
    {
      "version": "~7.0.0",
      "summary": "Python Imaging Library (Fork)",
      "type": "python-library",
      "name": "Pillow",
      "id": "QmQvQx8zRTCSEATfCJqoGsC6WPdTpX4XsusNue7w6eXVwi",
      "uid": "QmVqVAgKaCT6McE9fbJ3YGAS3soaaye3fqgQs7ensizM6q"
    }
  ]
}

